<?xml version="1.0" encoding="UTF-8"?>
<svg width="26px" height="26px" viewBox="0 0 26 26" version="1.1" xmlns="http://www.w3.org/2000/svg" xmlns:xlink="http://www.w3.org/1999/xlink">
    <title>5BB3FEF4-02C0-4D20-A348-6D5A7DB46207</title>
    <defs>
        <path d="M20.5,9.14285714 L19,7.64285714 L10.8571429,15.7857143 L7,11.9285714 L5.5,13.4285714 L10.8571429,18.7857143 L20.5,9.14285714 Z M13,25.8571429 C5.92857143,25.8571429 0.142857143,20.0714286 0.142857143,13 C0.142857143,5.92857143 5.92857143,0.142857143 13,0.142857143 C20.0714286,0.142857143 25.8571429,5.92857143 25.8571429,13 C25.8571429,20.0714286 20.0714286,25.8571429 13,25.8571429 Z" id="path-1"></path>
    </defs>
    <g id="Components" stroke="none" stroke-width="1" fill="none" fill-rule="evenodd">
        <g id="Icons" transform="translate(-1010.000000, -3269.000000)">
            <g id="Group" transform="translate(1010.000000, 3269.000000)">
                <circle id="Oval" fill="#FFFFFF" cx="13" cy="13" r="13"></circle>
                <mask id="mask-2" fill="white">
                    <use xlink:href="#path-1"></use>
                </mask>
                <use id="icon-color" fill="#00BD00" xlink:href="#path-1"></use>
            </g>
        </g>
    </g>
</svg>