<?xml version="1.0" encoding="UTF-8"?>
<svg width="48px" height="48px" viewBox="0 0 48 48" version="1.1" xmlns="http://www.w3.org/2000/svg" xmlns:xlink="http://www.w3.org/1999/xlink">
    <title>CBF2457B-6187-4585-8A07-CC3EB4448012</title>
    <g id="Components" stroke="none" stroke-width="1" fill="none" fill-rule="evenodd">
        <g id="Icons" transform="translate(-954.000000, -2617.000000)">
            <g id="icon-/-buttons-/-blue-/-edit" transform="translate(954.000000, 2617.000000)">
                <rect id="Rectangle" fill-opacity="0.01" fill="#FFFFFF" x="0" y="0" width="48" height="48"></rect>
                <g id="edit" transform="translate(16.000000, 16.000000)" fill="#214D7F" fill-rule="nonzero">
                    <polygon id="Path" points="0 12.6644583 0 15.9977917 3.33333333 15.9977917 13.168875 6.16220833 9.83554167 2.828875"></polygon>
                    <path d="M15.7377917,2.33554167 L13.6622083,0.26 C13.3155417,-0.0866666667 12.7510833,-0.0866666667 12.4044167,0.26 L10.77775,1.88666667 L14.1110833,5.22 L15.73775,3.59333333 C16.0844583,3.24666667 16.0844583,2.68220833 15.7377917,2.33554167 Z" id="Path"></path>
                </g>
            </g>
        </g>
    </g>
</svg>