<?xml version="1.0" encoding="UTF-8"?>
<svg width="30px" height="30px" viewBox="0 0 30 30" version="1.1" xmlns="http://www.w3.org/2000/svg" xmlns:xlink="http://www.w3.org/1999/xlink">
    <title>440E5C17-467C-4E89-A7AC-3545C69B89BA</title>
    <g id="Components" stroke="none" stroke-width="1" fill="none" fill-rule="evenodd">
        <g id="Icons" transform="translate(-760.000000, -1764.000000)">
            <g id="icon-/-social-media-/-white-/-facebook" transform="translate(760.000000, 1764.000000)">
                <circle id="Oval" stroke="#FFFFFF" cx="15" cy="15" r="14.5"></circle>
                <path d="M15.8963902,23.8636364 L12.5708466,23.8636364 L12.5708466,16.0217375 L10.9090909,16.0217375 L10.9090909,13.3196822 L12.5708466,13.3196822 L12.5708466,11.6974593 C12.5708466,9.49325526 13.5086642,8.18181818 16.1747889,8.18181818 L18.3938501,8.18181818 L18.3938501,10.8848632 L17.0069369,10.8848632 C15.9690381,10.8848632 15.9004545,11.2624581 15.9004545,11.96717 L15.8958822,13.3196822 L18.4090909,13.3196822 L18.1149434,16.0217375 L15.8958822,16.0217375 L15.8958822,23.8636364 L15.8963902,23.8636364 Z" id="Shape" fill="#FFFFFF"></path>
            </g>
        </g>
    </g>
</svg>