<?xml version="1.0" encoding="UTF-8"?>
<svg width="48px" height="48px" viewBox="0 0 48 48" version="1.1" xmlns="http://www.w3.org/2000/svg" xmlns:xlink="http://www.w3.org/1999/xlink">
    <title>DB8EED7B-5D32-4B2A-90B2-8B5034049416</title>
    <g id="Mobile" stroke="none" stroke-width="1" fill="none" fill-rule="evenodd">
        <g id="common-action" transform="translate(-166.000000, -25.000000)" fill="#FFFFFF">
            <g id="icon-/-buttons-/-white-/-more" transform="translate(166.000000, 25.000000)">
                <rect id="Rectangle" fill-opacity="0.01" x="0" y="0" width="48" height="48"></rect>
                <g id="shopping-cart" transform="translate(16.000000, 22.000000)" fill-rule="nonzero">
                    <g id="Group-4">
                        <path d="M15.414217,0.585778532 C16.1952551,1.36681658 16.1952551,2.6331567 15.414217,3.41419474 C14.633179,4.19523278 13.3668388,4.19523278 12.5858008,3.41419474 C11.8047628,2.6331567 11.8047628,1.36681658 12.5858008,0.585778532 C13.3668388,-0.195259511 14.633179,-0.195259511 15.414217,0.585778532" id="Path"></path>
                        <path d="M9.41421256,0.585778532 C10.1952506,1.36681658 10.1952506,2.6331567 9.41421256,3.41419474 C8.63317452,4.19523278 7.36683439,4.19523278 6.58579635,3.41419474 C5.80475831,2.6331567 5.80475831,1.36681658 6.58579635,0.585778532 C7.36683439,-0.195259511 8.63317452,-0.195259511 9.41421256,0.585778532" id="Path"></path>
                        <path d="M3.41419474,0.585778532 C4.19523278,1.36681658 4.19523278,2.6331567 3.41419474,3.41419474 C2.6331567,4.19523278 1.36681658,4.19523278 0.585778532,3.41419474 C-0.195259511,2.6331567 -0.195259511,1.36681658 0.585778532,0.585778532 C1.36681658,-0.195259511 2.6331567,-0.195259511 3.41419474,0.585778532" id="Path"></path>
                    </g>
                </g>
            </g>
        </g>
    </g>
</svg>