<?xml version="1.0" encoding="UTF-8"?>
<svg width="16px" height="16px" viewBox="0 0 16 16" version="1.1" xmlns="http://www.w3.org/2000/svg" xmlns:xlink="http://www.w3.org/1999/xlink">
    <title>FA3298E0-F9EB-42F2-BB79-627375FDA7C8</title>
    <g id="Components" stroke="none" stroke-width="1" fill="none" fill-rule="evenodd">
        <g id="Icons" transform="translate(-506.000000, -3274.000000)">
            <g id="icon-/-general-/-pointer-arrow-small" transform="translate(506.000000, 3274.000000)">
                <rect id="Rectangle" fill-opacity="0.01" fill="#FFFFFF" x="0" y="0" width="16" height="16"></rect>
                <polygon id="Path" fill="#000000" fill-rule="nonzero" transform="translate(3.541660, 8.000000) scale(-1, -1) translate(-3.541660, -8.000000) " points="1.43440815e-13 8 7.08332031 13 7.08332031 3"></polygon>
            </g>
        </g>
    </g>
</svg>