<?xml version="1.0" encoding="UTF-8"?>
<svg width="66px" height="38px" viewBox="0 0 66 38" version="1.1" xmlns="http://www.w3.org/2000/svg" xmlns:xlink="http://www.w3.org/1999/xlink">
    <title>0EFAF19E-2A77-46EE-9536-9E9C9B20258E</title>
    <g id="Desktop-" stroke="none" stroke-width="1" fill="none" fill-rule="evenodd">
        <g id="D-1.1-homepage-with-banner-video" transform="translate(-234.000000, -2737.000000)" fill="#E0E0E0" fill-rule="nonzero">
            <g id="testimonial-" transform="translate(121.000000, 2552.000000)">
                <path d="M135.313846,222.28 C135.847179,222.28 136.327179,222.12 136.753846,221.8 C137.180513,221.48 137.447179,221.053333 137.553846,220.52 L137.553846,220.52 L148.273846,187.08 C148.700513,185.693333 148.273846,185 146.993846,185 L146.993846,185 L130.993846,185 C130.033846,185 129.287179,185.533333 128.753846,186.6 L128.753846,186.6 L113.393846,220.04 C112.967179,220.68 112.887179,221.213333 113.153846,221.64 C113.420513,222.066667 113.873846,222.28 114.513846,222.28 L114.513846,222.28 L135.313846,222.28 Z M165.393846,222.28 C166.567179,222.28 167.313846,221.693333 167.633846,220.52 L167.633846,220.52 L177.873846,187.08 C178.300513,185.693333 177.873846,185 176.593846,185 L176.593846,185 L160.593846,185 C159.633846,185 158.887179,185.533333 158.353846,186.6 L158.353846,186.6 L143.153846,220.04 C142.513846,221.533333 142.887179,222.28 144.273846,222.28 L144.273846,222.28 L165.393846,222.28 Z" id="apostrophe"></path>
            </g>
        </g>
    </g>
</svg>