<?xml version="1.0" encoding="UTF-8"?>
<svg width="48px" height="48px" viewBox="0 0 48 48" version="1.1" xmlns="http://www.w3.org/2000/svg" xmlns:xlink="http://www.w3.org/1999/xlink">
    <title>0D6773C9-3AA2-4525-AECF-52370E4A8E9B</title>
    <g id="Components" stroke="none" stroke-width="1" fill="none" fill-rule="evenodd">
        <g id="Icons" transform="translate(-1141.000000, -2622.000000)">
            <g id="icon-/-buttons-/-blue-/-delete" transform="translate(1141.000000, 2622.000000)">
                <rect id="Rectangle" x="0" y="0" width="48" height="48"></rect>
                <g id="delete" transform="translate(18.000000, 16.000000)" fill="#214D7F" fill-rule="nonzero">
                    <path d="M1.23076923,14.2417465 C1.23076923,15.2132014 2.01101202,16 2.9743726,16 L9.94874519,16 C10.9120649,16 11.6923077,15.2132014 11.6923077,14.2417465 L11.6923077,3.69230769 L1.23076923,3.69230769 L1.23076923,14.2417465 Z" id="Path"></path>
                    <polygon id="Path" points="9.23078984 0.8205 8.35163952 0 3.95605279 0 3.07690247 0.8205 0 0.8205 0 2.46153846 12.3076923 2.46153846 12.3076923 0.8205"></polygon>
                </g>
            </g>
        </g>
    </g>
</svg>