<?xml version="1.0" encoding="UTF-8"?>
<svg width="30px" height="30px" viewBox="0 0 30 30" version="1.1" xmlns="http://www.w3.org/2000/svg" xmlns:xlink="http://www.w3.org/1999/xlink">
    <title>55B97646-562D-4177-B79B-740688616FB6</title>
    <g id="Components" stroke="none" stroke-width="1" fill="none" fill-rule="evenodd">
        <g id="Icons" transform="translate(-44.000000, -1764.000000)">
            <g id="icon-/-social-media-/-white-/-vimeo" transform="translate(44.000000, 1764.000000)">
                <circle id="Oval" stroke="#FFFFFF" cx="15" cy="15" r="14.5"></circle>
                <path d="M16.181,12.77525 C18.003,11.68125 18.985,13.22325 18.051,14.96625 C17.115,16.71625 16.256,17.85725 15.811,17.85725 C15.374,17.85725 15.028,16.68325 14.516,14.64525 C13.991,12.53425 13.991,8.72825 11.795,9.16025 C9.719,9.57025 7,12.82025 7,12.82025 L7.646,13.67125 C7.646,13.67125 8.986,12.61425 9.432,13.14025 C9.884,13.67125 11.595,20.04725 12.161,21.22625 C12.655,22.25925 14.026,23.62225 15.524,22.65025 C17.036,21.67225 22.027,17.41025 22.921,12.36725 C23.813,7.33325 16.905,8.38725 16.181,12.77525 Z" id="Path" fill="#FFFFFF" fill-rule="nonzero"></path>
            </g>
        </g>
    </g>
</svg>