<?xml version="1.0" encoding="UTF-8"?>
<svg width="28px" height="28px" viewBox="0 0 28 28" version="1.1" xmlns="http://www.w3.org/2000/svg" xmlns:xlink="http://www.w3.org/1999/xlink">
    <title>E6BB91A2-C4AD-4298-8A83-EA86C5A730AC</title>
    <g id="Mobile" stroke="none" stroke-width="1" fill="none" fill-rule="evenodd">
        <g id="1.4---Review-(first-video)" transform="translate(-278.000000, -293.000000)">
            <g id="icon-/-general-/-back" transform="translate(292.000000, 307.000000) scale(-1, -1) translate(-292.000000, -307.000000) translate(279.000000, 294.000000)">
                <circle id="Oval" stroke="#1A1A1A" stroke-width="1.3" cx="13" cy="13" r="13"></circle>
                <polygon id="Fill" fill="#161616" transform="translate(12.000000, 13.500000) rotate(-270.000000) translate(-12.000000, -13.500000) " points="12 17 6 10.8596491 6.84 10 12 15.2807018 17.16 10 18 10.8596491"></polygon>
            </g>
        </g>
    </g>
</svg>