<?xml version="1.0" encoding="UTF-8"?>
<svg width="14px" height="14px" viewBox="0 0 14 14" version="1.1" xmlns="http://www.w3.org/2000/svg" xmlns:xlink="http://www.w3.org/1999/xlink">
    <title>703AD3D7-F953-476C-A125-A8A28B929B08</title>
    <g id="Components" stroke="none" stroke-width="1" fill="none" fill-rule="evenodd">
        <g id="Icons" transform="translate(-619.000000, -3275.000000)">
            <g id="icon-/-general-/-error" transform="translate(618.000000, 3274.000000)">
                <g id="error-icon" transform="translate(1.000000, 1.000000)">
                    <path d="M7,0 C3.2,0 0,3.2 0,7 C0,10.8 3.2,14 7,14 C10.8,14 14,10.9 14,7 C14,3.1 10.9,0 7,0 Z M6.5,3 L7.5,3 L7.5,8 L6.5,8 L6.5,3 Z M7,11.2 C6.6,11.2 6.2,10.8 6.2,10.4 C6.2,10 6.5,9.6 7,9.6 C7.4,9.6 7.8,10 7.8,10.4 C7.8,10.8 7.4,11.2 7,11.2 Z" id="Fill" fill="#D00000"></path>
                    <path d="M6.5,3 L7.5,3 L7.5,8 L6.5,8 L6.5,3 Z M7,11.2 C6.6,11.2 6.2,10.8 6.2,10.4 C6.2,10 6.5,9.6 7,9.6 C7.4,9.6 7.8,10 7.8,10.4 C7.8,10.8 7.4,11.2 7,11.2 Z" id="Inner-Fill" fill="#FFFFFF"></path>
                </g>
            </g>
        </g>
    </g>
</svg>