<?xml version="1.0" encoding="UTF-8"?>
<svg width="48px" height="48px" viewBox="0 0 48 48" version="1.1" xmlns="http://www.w3.org/2000/svg" xmlns:xlink="http://www.w3.org/1999/xlink">
    <title>977AD04B-58CE-434B-9C75-1083C988EA8F</title>
    <g id="Components" stroke="none" stroke-width="1" fill="none" fill-rule="evenodd">
        <g id="Icons" transform="translate(-280.000000, -2527.000000)" fill="#FFFFFF">
            <g id="icon-/-buttons-/-white-/-favourite" transform="translate(280.000000, 2527.000000)">
                <rect id="Rectangle" fill-opacity="0.01" x="0" y="0" width="48" height="48"></rect>
                <g id="icon" transform="translate(16.000000, 16.000000)" fill-rule="nonzero">
                    <path d="M8.78580972,0.263541176 L10.9199765,5.31474704 L16.383719,5.78412593 C16.7626671,5.81685327 16.9168301,6.28967714 16.6291741,6.53857714 L12.4848599,10.1291104 L13.7267761,15.470556 C13.8129007,15.8417529 13.410699,16.1337152 13.0851481,15.9364899 L8.38963671,13.1047141 L3.69412531,15.9364899 C3.3677132,16.1328539 2.96637272,15.8408916 3.05249728,15.470556 L4.29441354,10.1291104 L0.149238122,6.5377159 C-0.138417932,6.2888159 0.0148837973,5.81599202 0.394693139,5.78326469 L5.85843568,5.3138858 L7.99260246,0.263541176 C8.14073672,-0.0878470586 8.63767547,-0.0878470586 8.78580972,0.263541176 Z" id="Path"></path>
                </g>
            </g>
        </g>
    </g>
</svg>