<?xml version="1.0" encoding="UTF-8"?>
<svg width="30px" height="30px" viewBox="0 0 30 30" version="1.1" xmlns="http://www.w3.org/2000/svg" xmlns:xlink="http://www.w3.org/1999/xlink">
    <title>145F2385-6C3D-41E1-BCC3-73F09D7C7D0A</title>
    <g id="Desktop-" stroke="none" stroke-width="1" fill="none" fill-rule="evenodd">
        <g id="D-1.1-homepage-with-banner-video" transform="translate(-433.000000, -2258.000000)" fill="#1B1B1B">
            <g id="how-we-operate" transform="translate(120.000000, 2131.000000)">
                <g id="research" transform="translate(2.000000, 114.000000)">
                    <circle id="Oval" cx="326" cy="28" r="15"></circle>
                </g>
            </g>
        </g>
    </g>
</svg>