<?xml version="1.0" encoding="UTF-8"?>
<svg width="30px" height="30px" viewBox="0 0 30 30" version="1.1" xmlns="http://www.w3.org/2000/svg" xmlns:xlink="http://www.w3.org/1999/xlink">
    <title>313E2862-EA46-451D-BC62-51A494D7D0A4</title>
    <g id="Desktop-" stroke="none" stroke-width="1" fill="none" fill-rule="evenodd">
        <g id="D-1.1-homepage-with-banner-video" transform="translate(-862.000000, -2258.000000)" fill="#1B1B1B">
            <g id="how-we-operate" transform="translate(120.000000, 2131.000000)">
                <g id="preview" transform="translate(431.000000, 114.000000)">
                    <polygon id="Path" points="311 13 341 13 341 43"></polygon>
                </g>
            </g>
        </g>
    </g>
</svg>