<?xml version="1.0" encoding="UTF-8"?>
<svg width="28px" height="28px" viewBox="0 0 28 28" version="1.1" xmlns="http://www.w3.org/2000/svg" xmlns:xlink="http://www.w3.org/1999/xlink">
    <title>85C2EAD8-B413-4057-8486-FF94E632C00F</title>
    <g id="Components" stroke="none" stroke-width="1" fill="none" fill-rule="evenodd">
        <g id="Icons" transform="translate(-519.000000, -360.000000)">
            <g id="icon/-project" transform="translate(520.000000, 361.000000)">
                <circle id="outline" stroke="#1A1A1A" cx="13" cy="13" r="13"></circle>
                <g id="folder" transform="translate(6.933333, 7.800000)" fill="#1A1A1A" fill-rule="nonzero">
                    <polygon id="Path" points="6.99569112 2.08 12.48 2.08 12.48 0.693333333 6.24 0.693333333"></polygon>
                    <polygon id="Path" points="4.58934938 0 0 0 0 10.4 12.48 10.4 12.48 2.58767773 6.41747438 2.58767773"></polygon>
                </g>
            </g>
        </g>
    </g>
</svg>